[
	{
		"t": "add",
		"tiket": "0001",
		"name": "Вывести счетчик компаний и договоров",
		"p": "1",
		"status": "Открыто",
		"solut": "Не решено",
		"add": "23.12.15",
		"update": "27.12.15",
		"deadline": "31.12.15",
		"more": ""
	},
	{
		"t": "forbid",
		"tiket": "0002",
		"name": "Оптимизировать Kaod getPro",
		"p": "2",
		"status": "Открыто",
		"solut": "Не решено",
		"add": "17.12.15",
		"update": "22.12.15",
		"deadline": "7.01.16",
		"more": ""
	},
	{
		"t": "circle",
		"tiket": "0003",
		"name": "Вывести счетчик компаний и договоров",
		"p": "2",
		"status": "Открыто",
		"solut": "Не решено",
		"add": "4.12.15",
		"update": "-",
		"deadline": "15.02.16",
		"more": ""
	},
	{
		"t": "exclamation",
		"tiket": "0004",
		"name": "Оптимизировать Kaod getPro",
		"p": "3",
		"status": "Открыто",
		"solut": "Не решено",
		"add": "29.11.15",
		"update": "15.12.15",
		"deadline": "25.12.15",
		"more": ""
	},
	{
		"t": "add",
		"tiket": "0001",
		"name": "Вывести счетчик компаний и договоров",
		"p": "1",
		"status": "Открыто",
		"solut": "Не решено",
		"add": "23.12.15",
		"update": "27.12.15",
		"deadline": "31.12.15",
		"more": ""
	},
	{
		"t": "forbid",
		"tiket": "0002",
		"name": "Оптимизировать Kaod getPro",
		"p": "2",
		"status": "Открыто",
		"solut": "Не решено",
		"add": "17.12.15",
		"update": "22.12.15",
		"deadline": "7.01.16",
		"more": ""
	},
	{
		"t": "circle",
		"tiket": "0003",
		"name": "Вывести счетчик компаний и договоров",
		"p": "2",
		"status": "Открыто",
		"solut": "Не решено",
		"add": "4.12.15",
		"update": "-",
		"deadline": "15.02.16",
		"more": ""
	},
	{
		"t": "exclamation",
		"tiket": "0004",
		"name": "Оптимизировать Kaod getPro",
		"p": "3",
		"status": "Открыто",
		"solut": "Не решено",
		"add": "29.11.15",
		"update": "15.12.15",
		"deadline": "25.12.15",
		"more": ""
	},
	{
		"t": "add",
		"tiket": "0001",
		"name": "Вывести счетчик компаний и договоров",
		"p": "1",
		"status": "Открыто",
		"solut": "Не решено",
		"add": "23.12.15",
		"update": "27.12.15",
		"deadline": "31.12.15",
		"more": ""
	},
	{
		"t": "forbid",
		"tiket": "0002",
		"name": "Оптимизировать Kaod getPro",
		"p": "2",
		"status": "Открыто",
		"solut": "Не решено",
		"add": "17.12.15",
		"update": "22.12.15",
		"deadline": "7.01.16",
		"more": ""
	},
	{
		"t": "circle",
		"tiket": "0003",
		"name": "Вывести счетчик компаний и договоров",
		"p": "2",
		"status": "Открыто",
		"solut": "Не решено",
		"add": "4.12.15",
		"update": "-",
		"deadline": "15.02.16",
		"more": ""
	},
	{
		"t": "exclamation",
		"tiket": "0004",
		"name": "Оптимизировать Kaod getPro",
		"p": "3",
		"status": "Открыто",
		"solut": "Не решено",
		"add": "29.11.15",
		"update": "15.12.15",
		"deadline": "25.12.15",
		"more": ""
	},
	{
		"t": "add",
		"tiket": "0001",
		"name": "Вывести счетчик компаний и договоров",
		"p": "1",
		"status": "Открыто",
		"solut": "Не решено",
		"add": "23.12.15",
		"update": "27.12.15",
		"deadline": "31.12.15",
		"more": ""
	},
	{
		"t": "forbid",
		"tiket": "0002",
		"name": "Оптимизировать Kaod getPro",
		"p": "2",
		"status": "Открыто",
		"solut": "Не решено",
		"add": "17.12.15",
		"update": "22.12.15",
		"deadline": "7.01.16",
		"more": ""
	},
	{
		"t": "circle",
		"tiket": "0003",
		"name": "Вывести счетчик компаний и договоров",
		"p": "2",
		"status": "Открыто",
		"solut": "Не решено",
		"add": "4.12.15",
		"update": "-",
		"deadline": "15.02.16",
		"more": ""
	},
	{
		"t": "exclamation",
		"tiket": "0004",
		"name": "Оптимизировать Kaod getPro",
		"p": "3",
		"status": "Открыто",
		"solut": "Не решено",
		"add": "29.11.15",
		"update": "15.12.15",
		"deadline": "25.12.15",
		"more": ""
	},
	{
		"t": "add",
		"tiket": "0001",
		"name": "Вывести счетчик компаний и договоров",
		"p": "1",
		"status": "Открыто",
		"solut": "Не решено",
		"add": "23.12.15",
		"update": "27.12.15",
		"deadline": "31.12.15",
		"more": ""
	},
	{
		"t": "forbid",
		"tiket": "0002",
		"name": "Оптимизировать Kaod getPro",
		"p": "2",
		"status": "Открыто",
		"solut": "Не решено",
		"add": "17.12.15",
		"update": "22.12.15",
		"deadline": "7.01.16",
		"more": ""
	},
	{
		"t": "circle",
		"tiket": "0003",
		"name": "Вывести счетчик компаний и договоров",
		"p": "2",
		"status": "Открыто",
		"solut": "Не решено",
		"add": "4.12.15",
		"update": "-",
		"deadline": "15.02.16",
		"more": ""
	},
	{
		"t": "exclamation",
		"tiket": "0004",
		"name": "Оптимизировать Kaod getPro",
		"p": "3",
		"status": "Открыто",
		"solut": "Не решено",
		"add": "29.11.15",
		"update": "15.12.15",
		"deadline": "25.12.15",
		"more": ""
	},
	{
		"t": "add",
		"tiket": "0001",
		"name": "Вывести счетчик компаний и договоров",
		"p": "1",
		"status": "Открыто",
		"solut": "Не решено",
		"add": "23.12.15",
		"update": "27.12.15",
		"deadline": "31.12.15",
		"more": ""
	},
	{
		"t": "forbid",
		"tiket": "0002",
		"name": "Оптимизировать Kaod getPro",
		"p": "2",
		"status": "Открыто",
		"solut": "Не решено",
		"add": "17.12.15",
		"update": "22.12.15",
		"deadline": "7.01.16",
		"more": ""
	},
	{
		"t": "circle",
		"tiket": "0003",
		"name": "Вывести счетчик компаний и договоров",
		"p": "2",
		"status": "Открыто",
		"solut": "Не решено",
		"add": "4.12.15",
		"update": "-",
		"deadline": "15.02.16",
		"more": ""
	},
	{
		"t": "exclamation",
		"tiket": "0004",
		"name": "Оптимизировать Kaod getPro",
		"p": "3",
		"status": "Открыто",
		"solut": "Не решено",
		"add": "29.11.15",
		"update": "15.12.15",
		"deadline": "25.12.15",
		"more": ""
	},
	{
		"t": "add",
		"tiket": "0001",
		"name": "Вывести счетчик компаний и договоров",
		"p": "1",
		"status": "Открыто",
		"solut": "Не решено",
		"add": "23.12.15",
		"update": "27.12.15",
		"deadline": "31.12.15",
		"more": ""
	},
	{
		"t": "forbid",
		"tiket": "0002",
		"name": "Оптимизировать Kaod getPro",
		"p": "2",
		"status": "Открыто",
		"solut": "Не решено",
		"add": "17.12.15",
		"update": "22.12.15",
		"deadline": "7.01.16",
		"more": ""
	},
	{
		"t": "circle",
		"tiket": "0003",
		"name": "Вывести счетчик компаний и договоров",
		"p": "2",
		"status": "Открыто",
		"solut": "Не решено",
		"add": "4.12.15",
		"update": "-",
		"deadline": "15.02.16",
		"more": ""
	},
	{
		"t": "exclamation",
		"tiket": "0004",
		"name": "Оптимизировать Kaod getPro",
		"p": "3",
		"status": "Открыто",
		"solut": "Не решено",
		"add": "29.11.15",
		"update": "15.12.15",
		"deadline": "25.12.15",
		"more": ""
	},
	{
		"t": "add",
		"tiket": "0001",
		"name": "Вывести счетчик компаний и договоров",
		"p": "1",
		"status": "Открыто",
		"solut": "Не решено",
		"add": "23.12.15",
		"update": "27.12.15",
		"deadline": "31.12.15",
		"more": ""
	},
	{
		"t": "forbid",
		"tiket": "0002",
		"name": "Оптимизировать Kaod getPro",
		"p": "2",
		"status": "Открыто",
		"solut": "Не решено",
		"add": "17.12.15",
		"update": "22.12.15",
		"deadline": "7.01.16",
		"more": ""
	},
	{
		"t": "circle",
		"tiket": "0003",
		"name": "Вывести счетчик компаний и договоров",
		"p": "2",
		"status": "Открыто",
		"solut": "Не решено",
		"add": "4.12.15",
		"update": "-",
		"deadline": "15.02.16",
		"more": ""
	},
	{
		"t": "exclamation",
		"tiket": "0004",
		"name": "Оптимизировать Kaod getPro",
		"p": "3",
		"status": "Открыто",
		"solut": "Не решено",
		"add": "29.11.15",
		"update": "15.12.15",
		"deadline": "25.12.15",
		"more": ""
	},
	{
		"t": "add",
		"tiket": "0001",
		"name": "Вывести счетчик компаний и договоров",
		"p": "1",
		"status": "Открыто",
		"solut": "Не решено",
		"add": "23.12.15",
		"update": "27.12.15",
		"deadline": "31.12.15",
		"more": ""
	},
	{
		"t": "forbid",
		"tiket": "0002",
		"name": "Оптимизировать Kaod getPro",
		"p": "2",
		"status": "Открыто",
		"solut": "Не решено",
		"add": "17.12.15",
		"update": "22.12.15",
		"deadline": "7.01.16",
		"more": ""
	},
	{
		"t": "circle",
		"tiket": "0003",
		"name": "Вывести счетчик компаний и договоров",
		"p": "2",
		"status": "Открыто",
		"solut": "Не решено",
		"add": "4.12.15",
		"update": "-",
		"deadline": "15.02.16",
		"more": ""
	},
	{
		"t": "exclamation",
		"tiket": "0004",
		"name": "Оптимизировать Kaod getPro",
		"p": "3",
		"status": "Открыто",
		"solut": "Не решено",
		"add": "29.11.15",
		"update": "15.12.15",
		"deadline": "25.12.15",
		"more": ""
	},
	{
		"t": "add",
		"tiket": "0001",
		"name": "Вывести счетчик компаний и договоров",
		"p": "1",
		"status": "Открыто",
		"solut": "Не решено",
		"add": "23.12.15",
		"update": "27.12.15",
		"deadline": "31.12.15",
		"more": ""
	},
	{
		"t": "forbid",
		"tiket": "0002",
		"name": "Оптимизировать Kaod getPro",
		"p": "2",
		"status": "Открыто",
		"solut": "Не решено",
		"add": "17.12.15",
		"update": "22.12.15",
		"deadline": "7.01.16",
		"more": ""
	},
	{
		"t": "circle",
		"tiket": "0003",
		"name": "Вывести счетчик компаний и договоров",
		"p": "2",
		"status": "Открыто",
		"solut": "Не решено",
		"add": "4.12.15",
		"update": "-",
		"deadline": "15.02.16",
		"more": ""
	},
	{
		"t": "exclamation",
		"tiket": "0004",
		"name": "Оптимизировать Kaod getPro",
		"p": "3",
		"status": "Открыто",
		"solut": "Не решено",
		"add": "29.11.15",
		"update": "15.12.15",
		"deadline": "25.12.15",
		"more": ""
	},
	{
		"t": "add",
		"tiket": "0001",
		"name": "Вывести счетчик компаний и договоров",
		"p": "1",
		"status": "Открыто",
		"solut": "Не решено",
		"add": "23.12.15",
		"update": "27.12.15",
		"deadline": "31.12.15",
		"more": ""
	},
	{
		"t": "forbid",
		"tiket": "0002",
		"name": "Оптимизировать Kaod getPro",
		"p": "2",
		"status": "Открыто",
		"solut": "Не решено",
		"add": "17.12.15",
		"update": "22.12.15",
		"deadline": "7.01.16",
		"more": ""
	},
	{
		"t": "circle",
		"tiket": "0003",
		"name": "Вывести счетчик компаний и договоров",
		"p": "2",
		"status": "Открыто",
		"solut": "Не решено",
		"add": "4.12.15",
		"update": "-",
		"deadline": "15.02.16",
		"more": ""
	},
	{
		"t": "exclamation",
		"tiket": "0004",
		"name": "Оптимизировать Kaod getPro",
		"p": "3",
		"status": "Открыто",
		"solut": "Не решено",
		"add": "29.11.15",
		"update": "15.12.15",
		"deadline": "25.12.15",
		"more": ""
	},
	{
		"t": "add",
		"tiket": "0001",
		"name": "Вывести счетчик компаний и договоров",
		"p": "1",
		"status": "Открыто",
		"solut": "Не решено",
		"add": "23.12.15",
		"update": "27.12.15",
		"deadline": "31.12.15",
		"more": ""
	},
	{
		"t": "forbid",
		"tiket": "0002",
		"name": "Оптимизировать Kaod getPro",
		"p": "2",
		"status": "Открыто",
		"solut": "Не решено",
		"add": "17.12.15",
		"update": "22.12.15",
		"deadline": "7.01.16",
		"more": ""
	},
	{
		"t": "circle",
		"tiket": "0003",
		"name": "Вывести счетчик компаний и договоров",
		"p": "2",
		"status": "Открыто",
		"solut": "Не решено",
		"add": "4.12.15",
		"update": "-",
		"deadline": "15.02.16",
		"more": ""
	},
	{
		"t": "exclamation",
		"tiket": "0004",
		"name": "Оптимизировать Kaod getPro",
		"p": "3",
		"status": "Открыто",
		"solut": "Не решено",
		"add": "29.11.15",
		"update": "15.12.15",
		"deadline": "25.12.15",
		"more": ""
	},
	{
		"t": "add",
		"tiket": "0001",
		"name": "Вывести счетчик компаний и договоров",
		"p": "1",
		"status": "Открыто",
		"solut": "Не решено",
		"add": "23.12.15",
		"update": "27.12.15",
		"deadline": "31.12.15",
		"more": ""
	},
	{
		"t": "forbid",
		"tiket": "0002",
		"name": "Оптимизировать Kaod getPro",
		"p": "2",
		"status": "Открыто",
		"solut": "Не решено",
		"add": "17.12.15",
		"update": "22.12.15",
		"deadline": "7.01.16",
		"more": ""
	},
	{
		"t": "circle",
		"tiket": "0003",
		"name": "Вывести счетчик компаний и договоров",
		"p": "2",
		"status": "Открыто",
		"solut": "Не решено",
		"add": "4.12.15",
		"update": "-",
		"deadline": "15.02.16",
		"more": ""
	},
	{
		"t": "exclamation",
		"tiket": "0004",
		"name": "Оптимизировать Kaod getPro",
		"p": "3",
		"status": "Открыто",
		"solut": "Не решено",
		"add": "29.11.15",
		"update": "15.12.15",
		"deadline": "25.12.15",
		"more": ""
	},
	{
		"t": "add",
		"tiket": "0001",
		"name": "Вывести счетчик компаний и договоров",
		"p": "1",
		"status": "Открыто",
		"solut": "Не решено",
		"add": "23.12.15",
		"update": "27.12.15",
		"deadline": "31.12.15",
		"more": ""
	},
	{
		"t": "forbid",
		"tiket": "0002",
		"name": "Оптимизировать Kaod getPro",
		"p": "2",
		"status": "Открыто",
		"solut": "Не решено",
		"add": "17.12.15",
		"update": "22.12.15",
		"deadline": "7.01.16",
		"more": ""
	},
	{
		"t": "circle",
		"tiket": "0003",
		"name": "Вывести счетчик компаний и договоров",
		"p": "2",
		"status": "Открыто",
		"solut": "Не решено",
		"add": "4.12.15",
		"update": "-",
		"deadline": "15.02.16",
		"more": ""
	},
	{
		"t": "exclamation",
		"tiket": "0004",
		"name": "Оптимизировать Kaod getPro",
		"p": "3",
		"status": "Открыто",
		"solut": "Не решено",
		"add": "29.11.15",
		"update": "15.12.15",
		"deadline": "25.12.15",
		"more": ""
	},
	{
		"t": "add",
		"tiket": "0001",
		"name": "Вывести счетчик компаний и договоров",
		"p": "1",
		"status": "Открыто",
		"solut": "Не решено",
		"add": "23.12.15",
		"update": "27.12.15",
		"deadline": "31.12.15",
		"more": ""
	},
	{
		"t": "forbid",
		"tiket": "0002",
		"name": "Оптимизировать Kaod getPro",
		"p": "2",
		"status": "Открыто",
		"solut": "Не решено",
		"add": "17.12.15",
		"update": "22.12.15",
		"deadline": "7.01.16",
		"more": ""
	},
	{
		"t": "circle",
		"tiket": "0003",
		"name": "Вывести счетчик компаний и договоров",
		"p": "2",
		"status": "Открыто",
		"solut": "Не решено",
		"add": "4.12.15",
		"update": "-",
		"deadline": "15.02.16",
		"more": ""
	},
	{
		"t": "exclamation",
		"tiket": "0004",
		"name": "Оптимизировать Kaod getPro",
		"p": "3",
		"status": "Открыто",
		"solut": "Не решено",
		"add": "29.11.15",
		"update": "15.12.15",
		"deadline": "25.12.15",
		"more": ""
	},
	{
		"t": "add",
		"tiket": "0001",
		"name": "Вывести счетчик компаний и договоров",
		"p": "1",
		"status": "Открыто",
		"solut": "Не решено",
		"add": "23.12.15",
		"update": "27.12.15",
		"deadline": "31.12.15",
		"more": ""
	},
	{
		"t": "forbid",
		"tiket": "0002",
		"name": "Оптимизировать Kaod getPro",
		"p": "2",
		"status": "Открыто",
		"solut": "Не решено",
		"add": "17.12.15",
		"update": "22.12.15",
		"deadline": "7.01.16",
		"more": ""
	},
	{
		"t": "circle",
		"tiket": "0003",
		"name": "Вывести счетчик компаний и договоров",
		"p": "2",
		"status": "Открыто",
		"solut": "Не решено",
		"add": "4.12.15",
		"update": "-",
		"deadline": "15.02.16",
		"more": ""
	},
	{
		"t": "exclamation",
		"tiket": "0004",
		"name": "Оптимизировать Kaod getPro",
		"p": "3",
		"status": "Открыто",
		"solut": "Не решено",
		"add": "29.11.15",
		"update": "15.12.15",
		"deadline": "25.12.15",
		"more": ""
	},
	{
		"t": "add",
		"tiket": "0001",
		"name": "Вывести счетчик компаний и договоров",
		"p": "1",
		"status": "Открыто",
		"solut": "Не решено",
		"add": "23.12.15",
		"update": "27.12.15",
		"deadline": "31.12.15",
		"more": ""
	},
	{
		"t": "forbid",
		"tiket": "0002",
		"name": "Оптимизировать Kaod getPro",
		"p": "2",
		"status": "Открыто",
		"solut": "Не решено",
		"add": "17.12.15",
		"update": "22.12.15",
		"deadline": "7.01.16",
		"more": ""
	},
	{
		"t": "circle",
		"tiket": "0003",
		"name": "Вывести счетчик компаний и договоров",
		"p": "2",
		"status": "Открыто",
		"solut": "Не решено",
		"add": "4.12.15",
		"update": "-",
		"deadline": "15.02.16",
		"more": ""
	},
	{
		"t": "exclamation",
		"tiket": "0004",
		"name": "Оптимизировать Kaod getPro",
		"p": "3",
		"status": "Открыто",
		"solut": "Не решено",
		"add": "29.11.15",
		"update": "15.12.15",
		"deadline": "25.12.15",
		"more": ""
	},
	{
		"t": "add",
		"tiket": "0001",
		"name": "Вывести счетчик компаний и договоров",
		"p": "1",
		"status": "Открыто",
		"solut": "Не решено",
		"add": "23.12.15",
		"update": "27.12.15",
		"deadline": "31.12.15",
		"more": ""
	},
	{
		"t": "forbid",
		"tiket": "0002",
		"name": "Оптимизировать Kaod getPro",
		"p": "2",
		"status": "Открыто",
		"solut": "Не решено",
		"add": "17.12.15",
		"update": "22.12.15",
		"deadline": "7.01.16",
		"more": ""
	},
	{
		"t": "circle",
		"tiket": "0003",
		"name": "Вывести счетчик компаний и договоров",
		"p": "2",
		"status": "Открыто",
		"solut": "Не решено",
		"add": "4.12.15",
		"update": "-",
		"deadline": "15.02.16",
		"more": ""
	},
	{
		"t": "exclamation",
		"tiket": "0004",
		"name": "Оптимизировать Kaod getPro",
		"p": "3",
		"status": "Открыто",
		"solut": "Не решено",
		"add": "29.11.15",
		"update": "15.12.15",
		"deadline": "25.12.15",
		"more": ""
	},
	{
		"t": "add",
		"tiket": "0001",
		"name": "Вывести счетчик компаний и договоров",
		"p": "1",
		"status": "Открыто",
		"solut": "Не решено",
		"add": "23.12.15",
		"update": "27.12.15",
		"deadline": "31.12.15",
		"more": ""
	},
	{
		"t": "forbid",
		"tiket": "0002",
		"name": "Оптимизировать Kaod getPro",
		"p": "2",
		"status": "Открыто",
		"solut": "Не решено",
		"add": "17.12.15",
		"update": "22.12.15",
		"deadline": "7.01.16",
		"more": ""
	},
	{
		"t": "circle",
		"tiket": "0003",
		"name": "Вывести счетчик компаний и договоров",
		"p": "2",
		"status": "Открыто",
		"solut": "Не решено",
		"add": "4.12.15",
		"update": "-",
		"deadline": "15.02.16",
		"more": ""
	},
	{
		"t": "exclamation",
		"tiket": "0004",
		"name": "Оптимизировать Kaod getPro",
		"p": "3",
		"status": "Открыто",
		"solut": "Не решено",
		"add": "29.11.15",
		"update": "15.12.15",
		"deadline": "25.12.15",
		"more": ""
	},
	{
		"t": "add",
		"tiket": "0001",
		"name": "Вывести счетчик компаний и договоров",
		"p": "1",
		"status": "Открыто",
		"solut": "Не решено",
		"add": "23.12.15",
		"update": "27.12.15",
		"deadline": "31.12.15",
		"more": ""
	},
	{
		"t": "forbid",
		"tiket": "0002",
		"name": "Оптимизировать Kaod getPro",
		"p": "2",
		"status": "Открыто",
		"solut": "Не решено",
		"add": "17.12.15",
		"update": "22.12.15",
		"deadline": "7.01.16",
		"more": ""
	},
	{
		"t": "circle",
		"tiket": "0003",
		"name": "Вывести счетчик компаний и договоров",
		"p": "2",
		"status": "Открыто",
		"solut": "Не решено",
		"add": "4.12.15",
		"update": "-",
		"deadline": "15.02.16",
		"more": ""
	},
	{
		"t": "exclamation",
		"tiket": "0004",
		"name": "Оптимизировать Kaod getPro",
		"p": "3",
		"status": "Открыто",
		"solut": "Не решено",
		"add": "29.11.15",
		"update": "15.12.15",
		"deadline": "25.12.15",
		"more": ""
	},
	{
		"t": "add",
		"tiket": "0001",
		"name": "Вывести счетчик компаний и договоров",
		"p": "1",
		"status": "Открыто",
		"solut": "Не решено",
		"add": "23.12.15",
		"update": "27.12.15",
		"deadline": "31.12.15",
		"more": ""
	},
	{
		"t": "forbid",
		"tiket": "0002",
		"name": "Оптимизировать Kaod getPro",
		"p": "2",
		"status": "Открыто",
		"solut": "Не решено",
		"add": "17.12.15",
		"update": "22.12.15",
		"deadline": "7.01.16",
		"more": ""
	},
	{
		"t": "circle",
		"tiket": "0003",
		"name": "Вывести счетчик компаний и договоров",
		"p": "2",
		"status": "Открыто",
		"solut": "Не решено",
		"add": "4.12.15",
		"update": "-",
		"deadline": "15.02.16",
		"more": ""
	},
	{
		"t": "exclamation",
		"tiket": "0004",
		"name": "Оптимизировать Kaod getPro",
		"p": "3",
		"status": "Открыто",
		"solut": "Не решено",
		"add": "29.11.15",
		"update": "15.12.15",
		"deadline": "25.12.15",
		"more": ""
	},
	{
		"t": "add",
		"tiket": "0001",
		"name": "Вывести счетчик компаний и договоров",
		"p": "1",
		"status": "Открыто",
		"solut": "Не решено",
		"add": "23.12.15",
		"update": "27.12.15",
		"deadline": "31.12.15",
		"more": ""
	},
	{
		"t": "forbid",
		"tiket": "0002",
		"name": "Оптимизировать Kaod getPro",
		"p": "2",
		"status": "Открыто",
		"solut": "Не решено",
		"add": "17.12.15",
		"update": "22.12.15",
		"deadline": "7.01.16",
		"more": ""
	},
	{
		"t": "circle",
		"tiket": "0003",
		"name": "Вывести счетчик компаний и договоров",
		"p": "2",
		"status": "Открыто",
		"solut": "Не решено",
		"add": "4.12.15",
		"update": "-",
		"deadline": "15.02.16",
		"more": ""
	},
	{
		"t": "exclamation",
		"tiket": "0004",
		"name": "Оптимизировать Kaod getPro",
		"p": "3",
		"status": "Открыто",
		"solut": "Не решено",
		"add": "29.11.15",
		"update": "15.12.15",
		"deadline": "25.12.15",
		"more": ""
	},
	{
		"t": "add",
		"tiket": "0001",
		"name": "Вывести счетчик компаний и договоров",
		"p": "1",
		"status": "Открыто",
		"solut": "Не решено",
		"add": "23.12.15",
		"update": "27.12.15",
		"deadline": "31.12.15",
		"more": ""
	},
	{
		"t": "forbid",
		"tiket": "0002",
		"name": "Оптимизировать Kaod getPro",
		"p": "2",
		"status": "Открыто",
		"solut": "Не решено",
		"add": "17.12.15",
		"update": "22.12.15",
		"deadline": "7.01.16",
		"more": ""
	},
	{
		"t": "circle",
		"tiket": "0003",
		"name": "Вывести счетчик компаний и договоров",
		"p": "2",
		"status": "Открыто",
		"solut": "Не решено",
		"add": "4.12.15",
		"update": "-",
		"deadline": "15.02.16",
		"more": ""
	},
	{
		"t": "exclamation",
		"tiket": "0004",
		"name": "Оптимизировать Kaod getPro",
		"p": "3",
		"status": "Открыто",
		"solut": "Не решено",
		"add": "29.11.15",
		"update": "15.12.15",
		"deadline": "25.12.15",
		"more": ""
	},
	{
		"t": "add",
		"tiket": "0001",
		"name": "Вывести счетчик компаний и договоров",
		"p": "1",
		"status": "Открыто",
		"solut": "Не решено",
		"add": "23.12.15",
		"update": "27.12.15",
		"deadline": "31.12.15",
		"more": ""
	},
	{
		"t": "forbid",
		"tiket": "0002",
		"name": "Оптимизировать Kaod getPro",
		"p": "2",
		"status": "Открыто",
		"solut": "Не решено",
		"add": "17.12.15",
		"update": "22.12.15",
		"deadline": "7.01.16",
		"more": ""
	},
	{
		"t": "circle",
		"tiket": "0003",
		"name": "Вывести счетчик компаний и договоров",
		"p": "2",
		"status": "Открыто",
		"solut": "Не решено",
		"add": "4.12.15",
		"update": "-",
		"deadline": "15.02.16",
		"more": ""
	},
	{
		"t": "exclamation",
		"tiket": "0004",
		"name": "Оптимизировать Kaod getPro",
		"p": "3",
		"status": "Открыто",
		"solut": "Не решено",
		"add": "29.11.15",
		"update": "15.12.15",
		"deadline": "25.12.15",
		"more": ""
	},
	{
		"t": "add",
		"tiket": "0001",
		"name": "Вывести счетчик компаний и договоров",
		"p": "1",
		"status": "Открыто",
		"solut": "Не решено",
		"add": "23.12.15",
		"update": "27.12.15",
		"deadline": "31.12.15",
		"more": ""
	},
	{
		"t": "forbid",
		"tiket": "0002",
		"name": "Оптимизировать Kaod getPro",
		"p": "2",
		"status": "Открыто",
		"solut": "Не решено",
		"add": "17.12.15",
		"update": "22.12.15",
		"deadline": "7.01.16",
		"more": ""
	},
	{
		"t": "circle",
		"tiket": "0003",
		"name": "Вывести счетчик компаний и договоров",
		"p": "2",
		"status": "Открыто",
		"solut": "Не решено",
		"add": "4.12.15",
		"update": "-",
		"deadline": "15.02.16",
		"more": ""
	},
	{
		"t": "exclamation",
		"tiket": "0004",
		"name": "Оптимизировать Kaod getPro",
		"p": "3",
		"status": "Открыто",
		"solut": "Не решено",
		"add": "29.11.15",
		"update": "15.12.15",
		"deadline": "25.12.15",
		"more": ""
	},
	{
		"t": "add",
		"tiket": "0001",
		"name": "Вывести счетчик компаний и договоров",
		"p": "1",
		"status": "Открыто",
		"solut": "Не решено",
		"add": "23.12.15",
		"update": "27.12.15",
		"deadline": "31.12.15",
		"more": ""
	},
	{
		"t": "forbid",
		"tiket": "0002",
		"name": "Оптимизировать Kaod getPro",
		"p": "2",
		"status": "Открыто",
		"solut": "Не решено",
		"add": "17.12.15",
		"update": "22.12.15",
		"deadline": "7.01.16",
		"more": ""
	},
	{
		"t": "circle",
		"tiket": "0003",
		"name": "Вывести счетчик компаний и договоров",
		"p": "2",
		"status": "Открыто",
		"solut": "Не решено",
		"add": "4.12.15",
		"update": "-",
		"deadline": "15.02.16",
		"more": ""
	},
	{
		"t": "exclamation",
		"tiket": "0004",
		"name": "Оптимизировать Kaod getPro",
		"p": "3",
		"status": "Открыто",
		"solut": "Не решено",
		"add": "29.11.15",
		"update": "15.12.15",
		"deadline": "25.12.15",
		"more": ""
	},
	{
		"t": "add",
		"tiket": "0001",
		"name": "Вывести счетчик компаний и договоров",
		"p": "1",
		"status": "Открыто",
		"solut": "Не решено",
		"add": "23.12.15",
		"update": "27.12.15",
		"deadline": "31.12.15",
		"more": ""
	},
	{
		"t": "forbid",
		"tiket": "0002",
		"name": "Оптимизировать Kaod getPro",
		"p": "2",
		"status": "Открыто",
		"solut": "Не решено",
		"add": "17.12.15",
		"update": "22.12.15",
		"deadline": "7.01.16",
		"more": ""
	},
	{
		"t": "circle",
		"tiket": "0003",
		"name": "Вывести счетчик компаний и договоров",
		"p": "2",
		"status": "Открыто",
		"solut": "Не решено",
		"add": "4.12.15",
		"update": "-",
		"deadline": "15.02.16",
		"more": ""
	},
	{
		"t": "exclamation",
		"tiket": "0004",
		"name": "Оптимизировать Kaod getPro",
		"p": "3",
		"status": "Открыто",
		"solut": "Не решено",
		"add": "29.11.15",
		"update": "15.12.15",
		"deadline": "25.12.15",
		"more": ""
	},
	{
		"t": "add",
		"tiket": "0001",
		"name": "Вывести счетчик компаний и договоров",
		"p": "1",
		"status": "Открыто",
		"solut": "Не решено",
		"add": "23.12.15",
		"update": "27.12.15",
		"deadline": "31.12.15",
		"more": ""
	},
	{
		"t": "forbid",
		"tiket": "0002",
		"name": "Оптимизировать Kaod getPro",
		"p": "2",
		"status": "Открыто",
		"solut": "Не решено",
		"add": "17.12.15",
		"update": "22.12.15",
		"deadline": "7.01.16",
		"more": ""
	},
	{
		"t": "circle",
		"tiket": "0003",
		"name": "Вывести счетчик компаний и договоров",
		"p": "2",
		"status": "Открыто",
		"solut": "Не решено",
		"add": "4.12.15",
		"update": "-",
		"deadline": "15.02.16",
		"more": ""
	},
	{
		"t": "exclamation",
		"tiket": "0004",
		"name": "Оптимизировать Kaod getPro",
		"p": "3",
		"status": "Открыто",
		"solut": "Не решено",
		"add": "29.11.15",
		"update": "15.12.15",
		"deadline": "25.12.15",
		"more": ""
	},
	{
		"t": "add",
		"tiket": "0001",
		"name": "Вывести счетчик компаний и договоров",
		"p": "1",
		"status": "Открыто",
		"solut": "Не решено",
		"add": "23.12.15",
		"update": "27.12.15",
		"deadline": "31.12.15",
		"more": ""
	},
	{
		"t": "forbid",
		"tiket": "0002",
		"name": "Оптимизировать Kaod getPro",
		"p": "2",
		"status": "Открыто",
		"solut": "Не решено",
		"add": "17.12.15",
		"update": "22.12.15",
		"deadline": "7.01.16",
		"more": ""
	},
	{
		"t": "circle",
		"tiket": "0003",
		"name": "Вывести счетчик компаний и договоров",
		"p": "2",
		"status": "Открыто",
		"solut": "Не решено",
		"add": "4.12.15",
		"update": "-",
		"deadline": "15.02.16",
		"more": ""
	},
	{
		"t": "exclamation",
		"tiket": "0004",
		"name": "Оптимизировать Kaod getPro",
		"p": "3",
		"status": "Открыто",
		"solut": "Не решено",
		"add": "29.11.15",
		"update": "15.12.15",
		"deadline": "25.12.15",
		"more": ""
	},
	{
		"t": "add",
		"tiket": "0001",
		"name": "Вывести счетчик компаний и договоров",
		"p": "1",
		"status": "Открыто",
		"solut": "Не решено",
		"add": "23.12.15",
		"update": "27.12.15",
		"deadline": "31.12.15",
		"more": ""
	},
	{
		"t": "forbid",
		"tiket": "0002",
		"name": "Оптимизировать Kaod getPro",
		"p": "2",
		"status": "Открыто",
		"solut": "Не решено",
		"add": "17.12.15",
		"update": "22.12.15",
		"deadline": "7.01.16",
		"more": ""
	},
	{
		"t": "circle",
		"tiket": "0003",
		"name": "Вывести счетчик компаний и договоров",
		"p": "2",
		"status": "Открыто",
		"solut": "Не решено",
		"add": "4.12.15",
		"update": "-",
		"deadline": "15.02.16",
		"more": ""
	},
	{
		"t": "exclamation",
		"tiket": "0004",
		"name": "Оптимизировать Kaod getPro",
		"p": "3",
		"status": "Открыто",
		"solut": "Не решено",
		"add": "29.11.15",
		"update": "15.12.15",
		"deadline": "25.12.15",
		"more": ""
	},
	{
		"t": "add",
		"tiket": "0001",
		"name": "Вывести счетчик компаний и договоров",
		"p": "1",
		"status": "Открыто",
		"solut": "Не решено",
		"add": "23.12.15",
		"update": "27.12.15",
		"deadline": "31.12.15",
		"more": ""
	},
	{
		"t": "forbid",
		"tiket": "0002",
		"name": "Оптимизировать Kaod getPro",
		"p": "2",
		"status": "Открыто",
		"solut": "Не решено",
		"add": "17.12.15",
		"update": "22.12.15",
		"deadline": "7.01.16",
		"more": ""
	},
	{
		"t": "circle",
		"tiket": "0003",
		"name": "Вывести счетчик компаний и договоров",
		"p": "2",
		"status": "Открыто",
		"solut": "Не решено",
		"add": "4.12.15",
		"update": "-",
		"deadline": "15.02.16",
		"more": ""
	},
	{
		"t": "exclamation",
		"tiket": "0004",
		"name": "Оптимизировать Kaod getPro",
		"p": "3",
		"status": "Открыто",
		"solut": "Не решено",
		"add": "29.11.15",
		"update": "15.12.15",
		"deadline": "25.12.15",
		"more": ""
	},
	{
		"t": "add",
		"tiket": "0001",
		"name": "Вывести счетчик компаний и договоров",
		"p": "1",
		"status": "Открыто",
		"solut": "Не решено",
		"add": "23.12.15",
		"update": "27.12.15",
		"deadline": "31.12.15",
		"more": ""
	},
	{
		"t": "forbid",
		"tiket": "0002",
		"name": "Оптимизировать Kaod getPro",
		"p": "2",
		"status": "Открыто",
		"solut": "Не решено",
		"add": "17.12.15",
		"update": "22.12.15",
		"deadline": "7.01.16",
		"more": ""
	},
	{
		"t": "circle",
		"tiket": "0003",
		"name": "Вывести счетчик компаний и договоров",
		"p": "2",
		"status": "Открыто",
		"solut": "Не решено",
		"add": "4.12.15",
		"update": "-",
		"deadline": "15.02.16",
		"more": ""
	},
	{
		"t": "exclamation",
		"tiket": "0004",
		"name": "Оптимизировать Kaod getPro",
		"p": "3",
		"status": "Открыто",
		"solut": "Не решено",
		"add": "29.11.15",
		"update": "15.12.15",
		"deadline": "25.12.15",
		"more": ""
	},
	{
		"t": "add",
		"tiket": "0001",
		"name": "Вывести счетчик компаний и договоров",
		"p": "1",
		"status": "Открыто",
		"solut": "Не решено",
		"add": "23.12.15",
		"update": "27.12.15",
		"deadline": "31.12.15",
		"more": ""
	},
	{
		"t": "forbid",
		"tiket": "0002",
		"name": "Оптимизировать Kaod getPro",
		"p": "2",
		"status": "Открыто",
		"solut": "Не решено",
		"add": "17.12.15",
		"update": "22.12.15",
		"deadline": "7.01.16",
		"more": ""
	},
	{
		"t": "circle",
		"tiket": "0003",
		"name": "Вывести счетчик компаний и договоров",
		"p": "2",
		"status": "Открыто",
		"solut": "Не решено",
		"add": "4.12.15",
		"update": "-",
		"deadline": "15.02.16",
		"more": ""
	},
	{
		"t": "exclamation",
		"tiket": "0004",
		"name": "Оптимизировать Kaod getPro",
		"p": "3",
		"status": "Открыто",
		"solut": "Не решено",
		"add": "29.11.15",
		"update": "15.12.15",
		"deadline": "25.12.15",
		"more": ""
	},
	{
		"t": "add",
		"tiket": "0001",
		"name": "Вывести счетчик компаний и договоров",
		"p": "1",
		"status": "Открыто",
		"solut": "Не решено",
		"add": "23.12.15",
		"update": "27.12.15",
		"deadline": "31.12.15",
		"more": ""
	},
	{
		"t": "forbid",
		"tiket": "0002",
		"name": "Оптимизировать Kaod getPro",
		"p": "2",
		"status": "Открыто",
		"solut": "Не решено",
		"add": "17.12.15",
		"update": "22.12.15",
		"deadline": "7.01.16",
		"more": ""
	},
	{
		"t": "circle",
		"tiket": "0003",
		"name": "Вывести счетчик компаний и договоров",
		"p": "2",
		"status": "Открыто",
		"solut": "Не решено",
		"add": "4.12.15",
		"update": "-",
		"deadline": "15.02.16",
		"more": ""
	},
	{
		"t": "exclamation",
		"tiket": "0004",
		"name": "Оптимизировать Kaod getPro",
		"p": "3",
		"status": "Открыто",
		"solut": "Не решено",
		"add": "29.11.15",
		"update": "15.12.15",
		"deadline": "25.12.15",
		"more": ""
	},
	{
		"t": "add",
		"tiket": "0001",
		"name": "Вывести счетчик компаний и договоров",
		"p": "1",
		"status": "Открыто",
		"solut": "Не решено",
		"add": "23.12.15",
		"update": "27.12.15",
		"deadline": "31.12.15",
		"more": ""
	},
	{
		"t": "forbid",
		"tiket": "0002",
		"name": "Оптимизировать Kaod getPro",
		"p": "2",
		"status": "Открыто",
		"solut": "Не решено",
		"add": "17.12.15",
		"update": "22.12.15",
		"deadline": "7.01.16",
		"more": ""
	},
	{
		"t": "circle",
		"tiket": "0003",
		"name": "Вывести счетчик компаний и договоров",
		"p": "2",
		"status": "Открыто",
		"solut": "Не решено",
		"add": "4.12.15",
		"update": "-",
		"deadline": "15.02.16",
		"more": ""
	},
	{
		"t": "exclamation",
		"tiket": "0004",
		"name": "Оптимизировать Kaod getPro",
		"p": "3",
		"status": "Открыто",
		"solut": "Не решено",
		"add": "29.11.15",
		"update": "15.12.15",
		"deadline": "25.12.15",
		"more": ""
	},
	{
		"t": "add",
		"tiket": "0001",
		"name": "Вывести счетчик компаний и договоров",
		"p": "1",
		"status": "Открыто",
		"solut": "Не решено",
		"add": "23.12.15",
		"update": "27.12.15",
		"deadline": "31.12.15",
		"more": ""
	},
	{
		"t": "forbid",
		"tiket": "0002",
		"name": "Оптимизировать Kaod getPro",
		"p": "2",
		"status": "Открыто",
		"solut": "Не решено",
		"add": "17.12.15",
		"update": "22.12.15",
		"deadline": "7.01.16",
		"more": ""
	},
	{
		"t": "circle",
		"tiket": "0003",
		"name": "Вывести счетчик компаний и договоров",
		"p": "2",
		"status": "Открыто",
		"solut": "Не решено",
		"add": "4.12.15",
		"update": "-",
		"deadline": "15.02.16",
		"more": ""
	},
	{
		"t": "exclamation",
		"tiket": "0004",
		"name": "Оптимизировать Kaod getPro",
		"p": "3",
		"status": "Открыто",
		"solut": "Не решено",
		"add": "29.11.15",
		"update": "15.12.15",
		"deadline": "25.12.15",
		"more": ""
	},
	{
		"t": "add",
		"tiket": "0001",
		"name": "Вывести счетчик компаний и договоров",
		"p": "1",
		"status": "Открыто",
		"solut": "Не решено",
		"add": "23.12.15",
		"update": "27.12.15",
		"deadline": "31.12.15",
		"more": ""
	},
	{
		"t": "forbid",
		"tiket": "0002",
		"name": "Оптимизировать Kaod getPro",
		"p": "2",
		"status": "Открыто",
		"solut": "Не решено",
		"add": "17.12.15",
		"update": "22.12.15",
		"deadline": "7.01.16",
		"more": ""
	},
	{
		"t": "circle",
		"tiket": "0003",
		"name": "Вывести счетчик компаний и договоров",
		"p": "2",
		"status": "Открыто",
		"solut": "Не решено",
		"add": "4.12.15",
		"update": "-",
		"deadline": "15.02.16",
		"more": ""
	},
	{
		"t": "exclamation",
		"tiket": "0004",
		"name": "Оптимизировать Kaod getPro",
		"p": "3",
		"status": "Открыто",
		"solut": "Не решено",
		"add": "29.11.15",
		"update": "15.12.15",
		"deadline": "25.12.15",
		"more": ""
	},
	{
		"t": "add",
		"tiket": "0001",
		"name": "Вывести счетчик компаний и договоров",
		"p": "1",
		"status": "Открыто",
		"solut": "Не решено",
		"add": "23.12.15",
		"update": "27.12.15",
		"deadline": "31.12.15",
		"more": ""
	},
	{
		"t": "forbid",
		"tiket": "0002",
		"name": "Оптимизировать Kaod getPro",
		"p": "2",
		"status": "Открыто",
		"solut": "Не решено",
		"add": "17.12.15",
		"update": "22.12.15",
		"deadline": "7.01.16",
		"more": ""
	},
	{
		"t": "circle",
		"tiket": "0003",
		"name": "Вывести счетчик компаний и договоров",
		"p": "2",
		"status": "Открыто",
		"solut": "Не решено",
		"add": "4.12.15",
		"update": "-",
		"deadline": "15.02.16",
		"more": ""
	},
	{
		"t": "exclamation",
		"tiket": "0004",
		"name": "Оптимизировать Kaod getPro",
		"p": "3",
		"status": "Открыто",
		"solut": "Не решено",
		"add": "29.11.15",
		"update": "15.12.15",
		"deadline": "25.12.15",
		"more": ""
	},
	{
		"t": "add",
		"tiket": "0001",
		"name": "Вывести счетчик компаний и договоров",
		"p": "1",
		"status": "Открыто",
		"solut": "Не решено",
		"add": "23.12.15",
		"update": "27.12.15",
		"deadline": "31.12.15",
		"more": ""
	},
	{
		"t": "forbid",
		"tiket": "0002",
		"name": "Оптимизировать Kaod getPro",
		"p": "2",
		"status": "Открыто",
		"solut": "Не решено",
		"add": "17.12.15",
		"update": "22.12.15",
		"deadline": "7.01.16",
		"more": ""
	},
	{
		"t": "circle",
		"tiket": "0003",
		"name": "Вывести счетчик компаний и договоров",
		"p": "2",
		"status": "Открыто",
		"solut": "Не решено",
		"add": "4.12.15",
		"update": "-",
		"deadline": "15.02.16",
		"more": ""
	},
	{
		"t": "exclamation",
		"tiket": "0004",
		"name": "Оптимизировать Kaod getPro",
		"p": "3",
		"status": "Открыто",
		"solut": "Не решено",
		"add": "29.11.15",
		"update": "15.12.15",
		"deadline": "25.12.15",
		"more": ""
	},
	{
		"t": "add",
		"tiket": "0001",
		"name": "Вывести счетчик компаний и договоров",
		"p": "1",
		"status": "Открыто",
		"solut": "Не решено",
		"add": "23.12.15",
		"update": "27.12.15",
		"deadline": "31.12.15",
		"more": ""
	},
	{
		"t": "forbid",
		"tiket": "0002",
		"name": "Оптимизировать Kaod getPro",
		"p": "2",
		"status": "Открыто",
		"solut": "Не решено",
		"add": "17.12.15",
		"update": "22.12.15",
		"deadline": "7.01.16",
		"more": ""
	},
	{
		"t": "circle",
		"tiket": "0003",
		"name": "Вывести счетчик компаний и договоров",
		"p": "2",
		"status": "Открыто",
		"solut": "Не решено",
		"add": "4.12.15",
		"update": "-",
		"deadline": "15.02.16",
		"more": ""
	},
	{
		"t": "exclamation",
		"tiket": "0004",
		"name": "Оптимизировать Kaod getPro",
		"p": "3",
		"status": "Открыто",
		"solut": "Не решено",
		"add": "29.11.15",
		"update": "15.12.15",
		"deadline": "25.12.15",
		"more": ""
	},
	{
		"t": "add",
		"tiket": "0001",
		"name": "Вывести счетчик компаний и договоров",
		"p": "1",
		"status": "Открыто",
		"solut": "Не решено",
		"add": "23.12.15",
		"update": "27.12.15",
		"deadline": "31.12.15",
		"more": ""
	},
	{
		"t": "forbid",
		"tiket": "0002",
		"name": "Оптимизировать Kaod getPro",
		"p": "2",
		"status": "Открыто",
		"solut": "Не решено",
		"add": "17.12.15",
		"update": "22.12.15",
		"deadline": "7.01.16",
		"more": ""
	},
	{
		"t": "circle",
		"tiket": "0003",
		"name": "Вывести счетчик компаний и договоров",
		"p": "2",
		"status": "Открыто",
		"solut": "Не решено",
		"add": "4.12.15",
		"update": "-",
		"deadline": "15.02.16",
		"more": ""
	},
	{
		"t": "exclamation",
		"tiket": "0004",
		"name": "Оптимизировать Kaod getPro",
		"p": "3",
		"status": "Открыто",
		"solut": "Не решено",
		"add": "29.11.15",
		"update": "15.12.15",
		"deadline": "25.12.15",
		"more": ""
	},
	{
		"t": "add",
		"tiket": "0001",
		"name": "Вывести счетчик компаний и договоров",
		"p": "1",
		"status": "Открыто",
		"solut": "Не решено",
		"add": "23.12.15",
		"update": "27.12.15",
		"deadline": "31.12.15",
		"more": ""
	},
	{
		"t": "forbid",
		"tiket": "0002",
		"name": "Оптимизировать Kaod getPro",
		"p": "2",
		"status": "Открыто",
		"solut": "Не решено",
		"add": "17.12.15",
		"update": "22.12.15",
		"deadline": "7.01.16",
		"more": ""
	},
	{
		"t": "circle",
		"tiket": "0003",
		"name": "Вывести счетчик компаний и договоров",
		"p": "2",
		"status": "Открыто",
		"solut": "Не решено",
		"add": "4.12.15",
		"update": "-",
		"deadline": "15.02.16",
		"more": ""
	},
	{
		"t": "exclamation",
		"tiket": "0004",
		"name": "Оптимизировать Kaod getPro",
		"p": "3",
		"status": "Открыто",
		"solut": "Не решено",
		"add": "29.11.15",
		"update": "15.12.15",
		"deadline": "25.12.15",
		"more": ""
	},
	{
		"t": "add",
		"tiket": "0001",
		"name": "Вывести счетчик компаний и договоров",
		"p": "1",
		"status": "Открыто",
		"solut": "Не решено",
		"add": "23.12.15",
		"update": "27.12.15",
		"deadline": "31.12.15",
		"more": ""
	},
	{
		"t": "forbid",
		"tiket": "0002",
		"name": "Оптимизировать Kaod getPro",
		"p": "2",
		"status": "Открыто",
		"solut": "Не решено",
		"add": "17.12.15",
		"update": "22.12.15",
		"deadline": "7.01.16",
		"more": ""
	},
	{
		"t": "circle",
		"tiket": "0003",
		"name": "Вывести счетчик компаний и договоров",
		"p": "2",
		"status": "Открыто",
		"solut": "Не решено",
		"add": "4.12.15",
		"update": "-",
		"deadline": "15.02.16",
		"more": ""
	},
	{
		"t": "exclamation",
		"tiket": "0004",
		"name": "Оптимизировать Kaod getPro",
		"p": "3",
		"status": "Открыто",
		"solut": "Не решено",
		"add": "29.11.15",
		"update": "15.12.15",
		"deadline": "25.12.15",
		"more": ""
	},
	{
		"t": "add",
		"tiket": "0001",
		"name": "Вывести счетчик компаний и договоров",
		"p": "1",
		"status": "Открыто",
		"solut": "Не решено",
		"add": "23.12.15",
		"update": "27.12.15",
		"deadline": "31.12.15",
		"more": ""
	},
	{
		"t": "forbid",
		"tiket": "0002",
		"name": "Оптимизировать Kaod getPro",
		"p": "2",
		"status": "Открыто",
		"solut": "Не решено",
		"add": "17.12.15",
		"update": "22.12.15",
		"deadline": "7.01.16",
		"more": ""
	},
	{
		"t": "circle",
		"tiket": "0003",
		"name": "Вывести счетчик компаний и договоров",
		"p": "2",
		"status": "Открыто",
		"solut": "Не решено",
		"add": "4.12.15",
		"update": "-",
		"deadline": "15.02.16",
		"more": ""
	},
	{
		"t": "exclamation",
		"tiket": "0004",
		"name": "Оптимизировать Kaod getPro",
		"p": "3",
		"status": "Открыто",
		"solut": "Не решено",
		"add": "29.11.15",
		"update": "15.12.15",
		"deadline": "25.12.15",
		"more": ""
	},
	{
		"t": "add",
		"tiket": "0001",
		"name": "Вывести счетчик компаний и договоров",
		"p": "1",
		"status": "Открыто",
		"solut": "Не решено",
		"add": "23.12.15",
		"update": "27.12.15",
		"deadline": "31.12.15",
		"more": ""
	},
	{
		"t": "forbid",
		"tiket": "0002",
		"name": "Оптимизировать Kaod getPro",
		"p": "2",
		"status": "Открыто",
		"solut": "Не решено",
		"add": "17.12.15",
		"update": "22.12.15",
		"deadline": "7.01.16",
		"more": ""
	},
	{
		"t": "circle",
		"tiket": "0003",
		"name": "Вывести счетчик компаний и договоров",
		"p": "2",
		"status": "Открыто",
		"solut": "Не решено",
		"add": "4.12.15",
		"update": "-",
		"deadline": "15.02.16",
		"more": ""
	},
	{
		"t": "exclamation",
		"tiket": "0004",
		"name": "Оптимизировать Kaod getPro",
		"p": "3",
		"status": "Открыто",
		"solut": "Не решено",
		"add": "29.11.15",
		"update": "15.12.15",
		"deadline": "25.12.15",
		"more": ""
	},
	{
		"t": "add",
		"tiket": "0001",
		"name": "Вывести счетчик компаний и договоров",
		"p": "1",
		"status": "Открыто",
		"solut": "Не решено",
		"add": "23.12.15",
		"update": "27.12.15",
		"deadline": "31.12.15",
		"more": ""
	},
	{
		"t": "forbid",
		"tiket": "0002",
		"name": "Оптимизировать Kaod getPro",
		"p": "2",
		"status": "Открыто",
		"solut": "Не решено",
		"add": "17.12.15",
		"update": "22.12.15",
		"deadline": "7.01.16",
		"more": ""
	},
	{
		"t": "circle",
		"tiket": "0003",
		"name": "Вывести счетчик компаний и договоров",
		"p": "2",
		"status": "Открыто",
		"solut": "Не решено",
		"add": "4.12.15",
		"update": "-",
		"deadline": "15.02.16",
		"more": ""
	},
	{
		"t": "exclamation",
		"tiket": "0004",
		"name": "Оптимизировать Kaod getPro",
		"p": "3",
		"status": "Открыто",
		"solut": "Не решено",
		"add": "29.11.15",
		"update": "15.12.15",
		"deadline": "25.12.15",
		"more": ""
	},
	{
		"t": "add",
		"tiket": "0001",
		"name": "Вывести счетчик компаний и договоров",
		"p": "1",
		"status": "Открыто",
		"solut": "Не решено",
		"add": "23.12.15",
		"update": "27.12.15",
		"deadline": "31.12.15",
		"more": ""
	},
	{
		"t": "forbid",
		"tiket": "0002",
		"name": "Оптимизировать Kaod getPro",
		"p": "2",
		"status": "Открыто",
		"solut": "Не решено",
		"add": "17.12.15",
		"update": "22.12.15",
		"deadline": "7.01.16",
		"more": ""
	},
	{
		"t": "circle",
		"tiket": "0003",
		"name": "Вывести счетчик компаний и договоров",
		"p": "2",
		"status": "Открыто",
		"solut": "Не решено",
		"add": "4.12.15",
		"update": "-",
		"deadline": "15.02.16",
		"more": ""
	},
	{
		"t": "exclamation",
		"tiket": "0004",
		"name": "Оптимизировать Kaod getPro",
		"p": "3",
		"status": "Открыто",
		"solut": "Не решено",
		"add": "29.11.15",
		"update": "15.12.15",
		"deadline": "25.12.15",
		"more": ""
	},
	{
		"t": "add",
		"tiket": "0001",
		"name": "Вывести счетчик компаний и договоров",
		"p": "1",
		"status": "Открыто",
		"solut": "Не решено",
		"add": "23.12.15",
		"update": "27.12.15",
		"deadline": "31.12.15",
		"more": ""
	},
	{
		"t": "forbid",
		"tiket": "0002",
		"name": "Оптимизировать Kaod getPro",
		"p": "2",
		"status": "Открыто",
		"solut": "Не решено",
		"add": "17.12.15",
		"update": "22.12.15",
		"deadline": "7.01.16",
		"more": ""
	},
	{
		"t": "circle",
		"tiket": "0003",
		"name": "Вывести счетчик компаний и договоров",
		"p": "2",
		"status": "Открыто",
		"solut": "Не решено",
		"add": "4.12.15",
		"update": "-",
		"deadline": "15.02.16",
		"more": ""
	},
	{
		"t": "exclamation",
		"tiket": "0004",
		"name": "Оптимизировать Kaod getPro",
		"p": "3",
		"status": "Открыто",
		"solut": "Не решено",
		"add": "29.11.15",
		"update": "15.12.15",
		"deadline": "25.12.15",
		"more": ""
	},
	{
		"t": "add",
		"tiket": "0001",
		"name": "Вывести счетчик компаний и договоров",
		"p": "1",
		"status": "Открыто",
		"solut": "Не решено",
		"add": "23.12.15",
		"update": "27.12.15",
		"deadline": "31.12.15",
		"more": ""
	},
	{
		"t": "forbid",
		"tiket": "0002",
		"name": "Оптимизировать Kaod getPro",
		"p": "2",
		"status": "Открыто",
		"solut": "Не решено",
		"add": "17.12.15",
		"update": "22.12.15",
		"deadline": "7.01.16",
		"more": ""
	},
	{
		"t": "circle",
		"tiket": "0003",
		"name": "Вывести счетчик компаний и договоров",
		"p": "2",
		"status": "Открыто",
		"solut": "Не решено",
		"add": "4.12.15",
		"update": "-",
		"deadline": "15.02.16",
		"more": ""
	},
	{
		"t": "exclamation",
		"tiket": "0004",
		"name": "Оптимизировать Kaod getPro",
		"p": "3",
		"status": "Открыто",
		"solut": "Не решено",
		"add": "29.11.15",
		"update": "15.12.15",
		"deadline": "25.12.15",
		"more": ""
	},
	{
		"t": "add",
		"tiket": "0001",
		"name": "Вывести счетчик компаний и договоров",
		"p": "1",
		"status": "Открыто",
		"solut": "Не решено",
		"add": "23.12.15",
		"update": "27.12.15",
		"deadline": "31.12.15",
		"more": ""
	},
	{
		"t": "forbid",
		"tiket": "0002",
		"name": "Оптимизировать Kaod getPro",
		"p": "2",
		"status": "Открыто",
		"solut": "Не решено",
		"add": "17.12.15",
		"update": "22.12.15",
		"deadline": "7.01.16",
		"more": ""
	},
	{
		"t": "circle",
		"tiket": "0003",
		"name": "Вывести счетчик компаний и договоров",
		"p": "2",
		"status": "Открыто",
		"solut": "Не решено",
		"add": "4.12.15",
		"update": "-",
		"deadline": "15.02.16",
		"more": ""
	},
	{
		"t": "exclamation",
		"tiket": "0004",
		"name": "Оптимизировать Kaod getPro",
		"p": "3",
		"status": "Открыто",
		"solut": "Не решено",
		"add": "29.11.15",
		"update": "15.12.15",
		"deadline": "25.12.15",
		"more": ""
	},
	{
		"t": "add",
		"tiket": "0001",
		"name": "Вывести счетчик компаний и договоров",
		"p": "1",
		"status": "Открыто",
		"solut": "Не решено",
		"add": "23.12.15",
		"update": "27.12.15",
		"deadline": "31.12.15",
		"more": ""
	},
	{
		"t": "forbid",
		"tiket": "0002",
		"name": "Оптимизировать Kaod getPro",
		"p": "2",
		"status": "Открыто",
		"solut": "Не решено",
		"add": "17.12.15",
		"update": "22.12.15",
		"deadline": "7.01.16",
		"more": ""
	},
	{
		"t": "circle",
		"tiket": "0003",
		"name": "Вывести счетчик компаний и договоров",
		"p": "2",
		"status": "Открыто",
		"solut": "Не решено",
		"add": "4.12.15",
		"update": "-",
		"deadline": "15.02.16",
		"more": ""
	},
	{
		"t": "exclamation",
		"tiket": "0004",
		"name": "Оптимизировать Kaod getPro",
		"p": "3",
		"status": "Открыто",
		"solut": "Не решено",
		"add": "29.11.15",
		"update": "15.12.15",
		"deadline": "25.12.15",
		"more": ""
	},
	{
		"t": "add",
		"tiket": "0001",
		"name": "Вывести счетчик компаний и договоров",
		"p": "1",
		"status": "Открыто",
		"solut": "Не решено",
		"add": "23.12.15",
		"update": "27.12.15",
		"deadline": "31.12.15",
		"more": ""
	},
	{
		"t": "forbid",
		"tiket": "0002",
		"name": "Оптимизировать Kaod getPro",
		"p": "2",
		"status": "Открыто",
		"solut": "Не решено",
		"add": "17.12.15",
		"update": "22.12.15",
		"deadline": "7.01.16",
		"more": ""
	},
	{
		"t": "circle",
		"tiket": "0003",
		"name": "Вывести счетчик компаний и договоров",
		"p": "2",
		"status": "Открыто",
		"solut": "Не решено",
		"add": "4.12.15",
		"update": "-",
		"deadline": "15.02.16",
		"more": ""
	},
	{
		"t": "exclamation",
		"tiket": "0004",
		"name": "Оптимизировать Kaod getPro",
		"p": "3",
		"status": "Открыто",
		"solut": "Не решено",
		"add": "29.11.15",
		"update": "15.12.15",
		"deadline": "25.12.15",
		"more": ""
	},
	{
		"t": "add",
		"tiket": "0001",
		"name": "Вывести счетчик компаний и договоров",
		"p": "1",
		"status": "Открыто",
		"solut": "Не решено",
		"add": "23.12.15",
		"update": "27.12.15",
		"deadline": "31.12.15",
		"more": ""
	},
	{
		"t": "forbid",
		"tiket": "0002",
		"name": "Оптимизировать Kaod getPro",
		"p": "2",
		"status": "Открыто",
		"solut": "Не решено",
		"add": "17.12.15",
		"update": "22.12.15",
		"deadline": "7.01.16",
		"more": ""
	},
	{
		"t": "circle",
		"tiket": "0003",
		"name": "Вывести счетчик компаний и договоров",
		"p": "2",
		"status": "Открыто",
		"solut": "Не решено",
		"add": "4.12.15",
		"update": "-",
		"deadline": "15.02.16",
		"more": ""
	},
	{
		"t": "exclamation",
		"tiket": "0004",
		"name": "Оптимизировать Kaod getPro",
		"p": "3",
		"status": "Открыто",
		"solut": "Не решено",
		"add": "29.11.15",
		"update": "15.12.15",
		"deadline": "25.12.15",
		"more": ""
	},
	{
		"t": "add",
		"tiket": "0001",
		"name": "Вывести счетчик компаний и договоров",
		"p": "1",
		"status": "Открыто",
		"solut": "Не решено",
		"add": "23.12.15",
		"update": "27.12.15",
		"deadline": "31.12.15",
		"more": ""
	},
	{
		"t": "forbid",
		"tiket": "0002",
		"name": "Оптимизировать Kaod getPro",
		"p": "2",
		"status": "Открыто",
		"solut": "Не решено",
		"add": "17.12.15",
		"update": "22.12.15",
		"deadline": "7.01.16",
		"more": ""
	},
	{
		"t": "circle",
		"tiket": "0003",
		"name": "Вывести счетчик компаний и договоров",
		"p": "2",
		"status": "Открыто",
		"solut": "Не решено",
		"add": "4.12.15",
		"update": "-",
		"deadline": "15.02.16",
		"more": ""
	},
	{
		"t": "exclamation",
		"tiket": "0004",
		"name": "Оптимизировать Kaod getPro",
		"p": "3",
		"status": "Открыто",
		"solut": "Не решено",
		"add": "29.11.15",
		"update": "15.12.15",
		"deadline": "25.12.15",
		"more": ""
	},
	{
		"t": "exclamation",
		"tiket": "0004",
		"name": "Тестируем фильтры",
		"p": "2",
		"status": "Закрыто",
		"solut": "Решено",
		"add": "29.10.15",
		"update": "1.11.15",
		"deadline": "25.12.15",
		"more": ""
	}
]